<svg width="21" height="22" viewBox="0 0 21 22" fill="none" xmlns="http://www.w3.org/2000/svg">
<path d="M20.9794 5.88721C20.9783 5.50893 20.9437 5.1315 20.8761 4.75931C20.8006 4.30433 20.6569 3.86333 20.45 3.45117C20.223 3.01807 19.9275 2.62449 19.575 2.28565C19.043 1.76546 18.3862 1.39091 17.6676 1.19801C17.0074 1.03801 16.329 0.965633 15.6499 0.982759L15.6464 0.97226H5.34962V0.982759C4.96311 0.979628 4.57671 0.99686 4.19202 1.03439C3.77117 1.07939 3.3569 1.17276 2.95743 1.31264C2.29883 1.56066 1.708 1.9605 1.23291 2.4797C0.757824 2.9989 0.411864 3.62282 0.22312 4.30081C0.0642057 4.95528 -0.00816025 5.62778 0.00787465 6.30109L0 16.6315C0.00670138 17.0992 0.0385384 17.5663 0.0953728 18.0306C0.165508 18.5206 0.310398 18.9969 0.524987 19.4429C0.827966 20.0386 1.25916 20.5598 1.78758 20.9689C2.16515 21.2699 2.59287 21.5018 3.05105 21.6541C3.72369 21.8617 4.42432 21.9644 5.12825 21.9586C5.56924 21.9612 6.00935 21.9726 6.44946 21.9708C9.65189 21.9568 12.8534 21.9936 16.055 21.9507C16.478 21.9414 16.8994 21.8966 17.3149 21.8168C18.1001 21.6787 18.8309 21.3235 19.4245 20.7913C20.1234 20.1844 20.6115 19.3712 20.8184 18.469C20.9456 17.8649 21.0063 17.2488 20.9995 16.6315V16.5081C20.9995 16.46 20.982 6.02546 20.9794 5.88721ZM18.168 15.6042C18.0333 15.9192 17.3543 16.1791 16.2046 16.3567C16.097 16.3742 16.0515 16.5484 15.9894 16.8336C15.9631 16.9517 15.9369 17.0672 15.9019 17.188C15.8913 17.2393 15.8624 17.285 15.8205 17.3165C15.7786 17.3479 15.7266 17.3629 15.6744 17.3586H15.6569C15.5468 17.3547 15.4372 17.341 15.3296 17.3175C15.0459 17.2579 14.7568 17.2271 14.4669 17.2256C14.2587 17.2262 14.051 17.2437 13.8457 17.2781C13.4119 17.3879 13.0085 17.594 12.6653 17.881C12.0854 18.3761 11.3568 18.6634 10.5951 18.6974C10.5514 18.6974 10.5094 18.6956 10.4779 18.6939C10.4523 18.6961 10.4266 18.6973 10.4009 18.6974C9.63946 18.6639 8.9111 18.3769 8.33154 17.8819C7.98806 17.5946 7.58436 17.3882 7.15032 17.2781C6.94502 17.2437 6.73725 17.2261 6.52909 17.2256C6.23924 17.2285 5.95046 17.2611 5.66723 17.3227C5.55972 17.3479 5.45023 17.3637 5.33999 17.37C5.2845 17.3762 5.22868 17.3616 5.1834 17.3289C5.13811 17.2962 5.1066 17.2479 5.095 17.1932C5.06097 17.0755 5.03178 16.9564 5.0075 16.8362C4.9445 16.5492 4.899 16.3742 4.79138 16.3576C3.64253 16.18 2.96268 15.9192 2.82793 15.6025C2.81426 15.5709 2.80626 15.5371 2.80431 15.5027C2.80155 15.4573 2.81578 15.4124 2.84423 15.3768C2.87269 15.3412 2.91334 15.3175 2.9583 15.3102C3.90884 15.1382 4.76539 14.629 5.37062 13.8761C5.70371 13.4909 5.98062 13.0605 6.1931 12.5977L6.1966 12.5889C6.25926 12.4864 6.29878 12.3714 6.31238 12.252C6.32599 12.1326 6.31334 12.0117 6.27534 11.8977C6.12747 11.5477 5.63661 11.3928 5.31287 11.2895C5.23913 11.2675 5.16617 11.243 5.09412 11.216C4.80713 11.1023 4.33464 10.8625 4.39764 10.5309C4.44586 10.4062 4.53183 10.2997 4.64352 10.2263C4.75522 10.1529 4.88706 10.1162 5.02062 10.1214C5.08562 10.1199 5.15016 10.1327 5.20962 10.159C5.45191 10.283 5.71816 10.3532 5.9901 10.3646C6.15157 10.376 6.31152 10.3271 6.43896 10.2273C6.4308 10.0738 6.42146 9.92072 6.41096 9.76789C6.26316 8.73198 6.32626 7.67688 6.59646 6.66597C6.91429 5.94044 7.43881 5.32463 8.10452 4.89543C8.77022 4.46624 9.54762 4.24268 10.3396 4.25268L10.6494 4.25006C11.4424 4.23991 12.2209 4.46353 12.8876 4.89301C13.5544 5.32249 14.0799 5.93882 14.3986 6.66509C14.669 7.67688 14.7321 8.73286 14.5841 9.76963L14.5815 9.81951L14.557 10.2281C14.6728 10.3199 14.8171 10.3682 14.9648 10.3646C15.2208 10.3454 15.4706 10.2758 15.6997 10.1599C15.7756 10.1269 15.8576 10.1105 15.9404 10.1118C16.0342 10.1115 16.1272 10.1293 16.2142 10.1643L16.2186 10.166C16.317 10.1897 16.4062 10.2421 16.4747 10.3165C16.5433 10.391 16.5882 10.4842 16.6036 10.5843C16.6071 10.7453 16.4881 10.985 15.901 11.2169C15.8292 11.2438 15.7565 11.2683 15.6831 11.2904C15.3585 11.3937 14.8685 11.5494 14.7206 11.8985C14.6827 12.0124 14.6701 12.1332 14.6837 12.2524C14.6973 12.3717 14.7368 12.4865 14.7994 12.5889L14.8029 12.5977C15.0966 13.2685 15.5414 13.8624 16.1025 14.3329C16.6637 14.8034 17.3259 15.1379 18.0377 15.3102C18.0826 15.3177 18.1231 15.3415 18.1515 15.377C18.1799 15.4125 18.1942 15.4573 18.1917 15.5027C18.1898 15.5377 18.1818 15.572 18.168 15.6042Z" fill="white"/>
</svg>
